Project Mental Health and Screen Time
…
There were two duplicate rows in this dataframe, U136 seems to be 2
times in this dataframe.

The dataframe needs to be cleaned by removing one of the rows.

which(duplicated(df9), arr.ind=TRUE)

## [1] 137

Rows 113 and 137 needed to be removed

df10 <- df9[-c(113, 137), ]
df10

## # A tibble: 499 × 10
##    User_ID   Age Gender `Daily_Screen_Time(hrs)` `Sleep_Quality(1-10)`
##    <chr>   <dbl> <chr>                     <dbl>                 <dbl>
##  1 U001       44 Male                        3.1                     7
##  2 U002       30 Other                       5.1                     7
##  3 U003       23 Other                       7.4                     6
##  4 U004       36 Female                      5.7                     7
##  5 U005       34 Female                      7                       4
##  6 U006       38 Male                        6.6                     5
##  7 U007       26 Female                      7.8                     4
##  8 U008       26 Female                      7.4                     5
##  9 U009       39 Male                        4.7                     7
## 10 U010       39 Female                      6.6                     6
## # ℹ 489 more rows
## # ℹ 5 more variables: `Stress_Level(1-10)` <dbl>,
## #   Days_Without_Social_Media <dbl>, `Exercise_Frequency(week)` <dbl>,
## #   Social_Media_Platform <chr>, `Happiness_Index(1-10)` <dbl>
…
There seem to be also two users who have the lowest amount of screen
time of all the participant, User 040 and 095. These users have daily
screen time of 1 hour a day.

Now there has to be found out if users with the highest daily screen
time is the same when arranging from highest to lowest.

Arranging from highest to lowest daily screen time

df7 <- df1 %>%
  arrange(desc(`Daily_Screen_Time(hrs)`))
df7

## # A tibble: 500 × 10
##    User_ID   Age Gender `Daily_Screen_Time(hrs)` `Sleep_Quality(1-10)`
##    <chr>   <dbl> <chr>                     <dbl>                 <dbl>
##  1 U249       46 Female                     10.8                     5
##  2 U326       27 Male                       10.8                     2
##  3 U203       48 Female                     10                       3
##  4 U213       17 Female                      9.8                     4
##  5 U057       38 Female                      9.7                     3
##  6 U077       48 Female                      9.7                     4
##  7 U389       40 Male                        9.7                     4
##  8 U441       17 Female                      9.5                     4
##  9 U242       32 Male                        9.4                     3
## 10 U476       26 Female                      9.3                     3
## # ℹ 490 more rows
## # ℹ 5 more variables: `Stress_Level(1-10)` <dbl>,
## #   Days_Without_Social_Media <dbl>, `Exercise_Frequency(week)` <dbl>,
## #   Social_Media_Platform <chr>, `Happiness_Index(1-10)` <dbl>

It indeed are the same two users who have the highest amount of daily
screen time.

Arranging from lowest to highest amount daily screen time

df8 <- df1 %>%
  arrange(`Daily_Screen_Time(hrs)`)
df8

## # A tibble: 500 × 10
##    User_ID   Age Gender `Daily_Screen_Time(hrs)` `Sleep_Quality(1-10)`
##    <chr>   <dbl> <chr>                     <dbl>                 <dbl>
##  1 U040       23 Female                      1                       9
##  2 U095       41 Female                      1                       7
##  3 U283       38 Female                      1.5                     9
##  4 U379       23 Male                        1.5                     9
##  5 U295       30 Female                      1.7                     9
##  6 U325       18 Male                        1.7                     9
##  7 U150       34 Female                      1.8                     9
##  8 U028       36 Female                      2                       8
##  9 U051       25 Female                      2                       9
## 10 U261       47 Female                      2.1                     8
## # ℹ 490 more rows
## # ℹ 5 more variables: `Stress_Level(1-10)` <dbl>,
## #   Days_Without_Social_Media <dbl>, `Exercise_Frequency(week)` <dbl>,
## #   Social_Media_Platform <chr>, `Happiness_Index(1-10)` <dbl>
…
